module gitlab.com/anihm136_learning_projects/lets-go

go 1.16

require (
	github.com/bmizerany/pat v0.0.0-20210406213842-e4b6760bdd6f
	github.com/go-sql-driver/mysql v1.6.0
	github.com/golangcollege/sessions v1.2.0
	github.com/justinas/alice v1.2.0
	github.com/justinas/nosurf v1.1.1
	golang.org/x/crypto v0.0.0-20200317142112-1b76d66859c6
)
